{
  "tracks": {
    "href": "https://api.spotify.com/v1/search?offset=0&limit=20&query=ABBA&type=track&market=UK&locale=en-GB,en-US;q%3D0.9,en;q%3D0.8,la;q%3D0.7",
    "limit": 20,
    "next": "https://api.spotify.com/v1/search?offset=20&limit=20&query=ABBA&type=track&market=UK&locale=en-GB,en-US;q%3D0.9,en;q%3D0.8,la;q%3D0.7",
    "offset": 0,
    "previous": null,
    "total": 116,
    "items": [
      {
        "album": {
          "album_type": "album",
          "artists": [
            {
              "external_urls": {
                "spotify": "https://open.spotify.com/artist/0LcJLqbBmaGUft1e9Mm8HV"
              },
              "href": "https://api.spotify.com/v1/artists/0LcJLqbBmaGUft1e9Mm8HV",
              "id": "0LcJLqbBmaGUft1e9Mm8HV",
              "name": "ABBA",
              "type": "artist",
              "uri": "spotify:artist:0LcJLqbBmaGUft1e9Mm8HV"
            }
          ],
          "external_urls": {
            "spotify": "https://open.spotify.com/album/7iLuHJkrb9KHPkMgddYigh"
          },
          "href": "https://api.spotify.com/v1/albums/7iLuHJkrb9KHPkMgddYigh",
          "id": "7iLuHJkrb9KHPkMgddYigh",
          "images": [
            {
              "height": 640,
              "width": 640,
              "url": "https://i.scdn.co/image/ab67616d0000b273aa22899360d8ba6704732dec"
            },
            {
              "height": 300,
              "width": 300,
              "url": "https://i.scdn.co/image/ab67616d00001e02aa22899360d8ba6704732dec"
            },
            {
              "height": 64,
              "width": 64,
              "url": "https://i.scdn.co/image/ab67616d00004851aa22899360d8ba6704732dec"
            }
          ],
          "is_playable": true,
          "name": "Voulez-Vous",
          "release_date": "1979",
          "release_date_precision": "year",
          "total_tracks": 13,
          "type": "album",
          "uri": "spotify:album:7iLuHJkrb9KHPkMgddYigh"
        },
        "artists": [
          {
            "external_urls": {
              "spotify": "https://open.spotify.com/artist/0LcJLqbBmaGUft1e9Mm8HV"
            },
            "href": "https://api.spotify.com/v1/artists/0LcJLqbBmaGUft1e9Mm8HV",
            "id": "0LcJLqbBmaGUft1e9Mm8HV",
            "name": "ABBA",
            "type": "artist",
            "uri": "spotify:artist:0LcJLqbBmaGUft1e9Mm8HV"
          }
        ],
        "disc_number": 1,
        "duration_ms": 292613,
        "explicit": false,
        "external_ids": {
          "isrc": "SEAYD7901120"
        },
        "external_urls": {
          "spotify": "https://open.spotify.com/track/3vkQ5DAB1qQMYO4Mr9zJN6"
        },
        "href": "https://api.spotify.com/v1/tracks/3vkQ5DAB1qQMYO4Mr9zJN6",
        "id": "3vkQ5DAB1qQMYO4Mr9zJN6",
        "is_local": false,
        "is_playable": true,
        "name": "Gimme! Gimme! Gimme! (A Man After Midnight)",
        "popularity": 82,
        "preview_url": null,
        "track_number": 13,
        "type": "track",
        "uri": "spotify:track:3vkQ5DAB1qQMYO4Mr9zJN6"
      },
      {
        "album": {
          "album_type": "compilation",
          "artists": [
            {
              "external_urls": {
                "spotify": "https://open.spotify.com/artist/0LcJLqbBmaGUft1e9Mm8HV"
              },
              "href": "https://api.spotify.com/v1/artists/0LcJLqbBmaGUft1e9Mm8HV",
              "id": "0LcJLqbBmaGUft1e9Mm8HV",
              "name": "ABBA",
              "type": "artist",
              "uri": "spotify:artist:0LcJLqbBmaGUft1e9Mm8HV"
            }
          ],
          "external_urls": {
            "spotify": "https://open.spotify.com/album/2cKZfaz7GiGtZEeQNj1RyR"
          },
          "href": "https://api.spotify.com/v1/albums/2cKZfaz7GiGtZEeQNj1RyR",
          "id": "2cKZfaz7GiGtZEeQNj1RyR",
          "images": [
            {
              "height": 640,
              "width": 640,
              "url": "https://i.scdn.co/image/ab67616d0000b273f7ecaf9daf2c1d5ca89f7312"
            },
            {
              "height": 300,
              "width": 300,
              "url": "https://i.scdn.co/image/ab67616d00001e02f7ecaf9daf2c1d5ca89f7312"
            },
            {
              "height": 64,
              "width": 64,
              "url": "https://i.scdn.co/image/ab67616d00004851f7ecaf9daf2c1d5ca89f7312"
            }
          ],
          "is_playable": true,
          "name": "ABBA Gold",
          "release_date": "2008-01-01",
          "release_date_precision": "day",
          "total_tracks": 19,
          "type": "album",
          "uri": "spotify:album:2cKZfaz7GiGtZEeQNj1RyR"
        },
        "artists": [
          {
            "external_urls": {
              "spotify": "https://open.spotify.com/artist/0LcJLqbBmaGUft1e9Mm8HV"
            },
            "href": "https://api.spotify.com/v1/artists/0LcJLqbBmaGUft1e9Mm8HV",
            "id": "0LcJLqbBmaGUft1e9Mm8HV",
            "name": "ABBA",
            "type": "artist",
            "uri": "spotify:artist:0LcJLqbBmaGUft1e9Mm8HV"
          }
        ],
        "disc_number": 1,
        "duration_ms": 201360,
        "explicit": false,
        "external_ids": {
          "isrc": "SEAYD7501040"
        },
        "external_urls": {
          "spotify": "https://open.spotify.com/track/5pMmWfuL0FTGshYt7HVJ8P"
        },
        "href": "https://api.spotify.com/v1/tracks/5pMmWfuL0FTGshYt7HVJ8P",
        "id": "5pMmWfuL0FTGshYt7HVJ8P",
        "is_local": false,
        "is_playable": true,
        "name": "SOS",
        "popularity": 66,
        "preview_url": null,
        "track_number": 10,
        "type": "track",
        "uri": "spotify:track:5pMmWfuL0FTGshYt7HVJ8P"
      },
      {
        "album": {
          "album_type": "album",
          "artists": [
            {
              "external_urls": {
                "spotify": "https://open.spotify.com/artist/0LcJLqbBmaGUft1e9Mm8HV"
              },
              "href": "https://api.spotify.com/v1/artists/0LcJLqbBmaGUft1e9Mm8HV",
              "id": "0LcJLqbBmaGUft1e9Mm8HV",
              "name": "ABBA",
              "type": "artist",
              "uri": "spotify:artist:0LcJLqbBmaGUft1e9Mm8HV"
            }
          ],
          "external_urls": {
            "spotify": "https://open.spotify.com/album/7iLuHJkrb9KHPkMgddYigh"
          },
          "href": "https://api.spotify.com/v1/albums/7iLuHJkrb9KHPkMgddYigh",
          "id": "7iLuHJkrb9KHPkMgddYigh",
          "images": [
            {
              "height": 640,
              "width": 640,
              "url": "https://i.scdn.co/image/ab67616d0000b273aa22899360d8ba6704732dec"
            },
            {
              "height": 300,
              "width": 300,
              "url": "https://i.scdn.co/image/ab67616d00001e02aa22899360d8ba6704732dec"
            },
            {
              "height": 64,
              "width": 64,
              "url": "https://i.scdn.co/image/ab67616d00004851aa22899360d8ba6704732dec"
            }
          ],
          "is_playable": true,
          "name": "Voulez-Vous",
          "release_date": "1979",
          "release_date_precision": "year",
          "total_tracks": 13,
          "type": "album",
          "uri": "spotify:album:7iLuHJkrb9KHPkMgddYigh"
        },
        "artists": [
          {
            "external_urls": {
              "spotify": "https://open.spotify.com/artist/0LcJLqbBmaGUft1e9Mm8HV"
            },
            "href": "https://api.spotify.com/v1/artists/0LcJLqbBmaGUft1e9Mm8HV",
            "id": "0LcJLqbBmaGUft1e9Mm8HV",
            "name": "ABBA",
            "type": "artist",
            "uri": "spotify:artist:0LcJLqbBmaGUft1e9Mm8HV"
          }
        ],
        "disc_number": 1,
        "duration_ms": 326320,
        "explicit": false,
        "external_ids": {
          "isrc": "SEAYD7901080"
        },
        "external_urls": {
          "spotify": "https://open.spotify.com/track/762B4bOcXF7I2Y8UlKTyTy"
        },
        "href": "https://api.spotify.com/v1/tracks/762B4bOcXF7I2Y8UlKTyTy",
        "id": "762B4bOcXF7I2Y8UlKTyTy",
        "is_local": false,
        "is_playable": true,
        "name": "Chiquitita",
        "popularity": 75,
        "preview_url": null,
        "track_number": 8,
        "type": "track",
        "uri": "spotify:track:762B4bOcXF7I2Y8UlKTyTy"
      },
      {
        "album": {
          "album_type": "album",
          "artists": [
            {
              "external_urls": {
                "spotify": "https://open.spotify.com/artist/0oSGxfWSnnOXhD2fKuz2Gy"
              },
              "href": "https://api.spotify.com/v1/artists/0oSGxfWSnnOXhD2fKuz2Gy",
              "id": "0oSGxfWSnnOXhD2fKuz2Gy",
              "name": "David Bowie",
              "type": "artist",
              "uri": "spotify:artist:0oSGxfWSnnOXhD2fKuz2Gy"
            }
          ],
          "external_urls": {
            "spotify": "https://open.spotify.com/album/48D1hRORqJq52qsnUYZX56"
          },
          "href": "https://api.spotify.com/v1/albums/48D1hRORqJq52qsnUYZX56",
          "id": "48D1hRORqJq52qsnUYZX56",
          "images": [
            {
              "height": 640,
              "width": 640,
              "url": "https://i.scdn.co/image/ab67616d0000b273c41f4e1133b0e6c5fcf58680"
            },
            {
              "height": 300,
              "width": 300,
              "url": "https://i.scdn.co/image/ab67616d00001e02c41f4e1133b0e6c5fcf58680"
            },
            {
              "height": 64,
              "width": 64,
              "url": "https://i.scdn.co/image/ab67616d00004851c41f4e1133b0e6c5fcf58680"
            }
          ],
          "is_playable": true,
          "name": "The Rise and Fall of Ziggy Stardust and the Spiders from Mars (2012 Remaster)",
          "release_date": "1972-06-06",
          "release_date_precision": "day",
          "total_tracks": 11,
          "type": "album",
          "uri": "spotify:album:48D1hRORqJq52qsnUYZX56"
        },
        "artists": [
          {
            "external_urls": {
              "spotify": "https://open.spotify.com/artist/0oSGxfWSnnOXhD2fKuz2Gy"
            },
            "href": "https://api.spotify.com/v1/artists/0oSGxfWSnnOXhD2fKuz2Gy",
            "id": "0oSGxfWSnnOXhD2fKuz2Gy",
            "name": "David Bowie",
            "type": "artist",
            "uri": "spotify:artist:0oSGxfWSnnOXhD2fKuz2Gy"
          }
        ],
        "disc_number": 1,
        "duration_ms": 254293,
        "explicit": false,
        "external_ids": {
          "isrc": "USJT11200004"
        },
        "external_urls": {
          "spotify": "https://open.spotify.com/track/0pQskrTITgmCMyr85tb9qq"
        },
        "href": "https://api.spotify.com/v1/tracks/0pQskrTITgmCMyr85tb9qq",
        "id": "0pQskrTITgmCMyr85tb9qq",
        "is_local": false,
        "is_playable": true,
        "name": "Starman - 2012 Remaster",
        "popularity": 78,
        "preview_url": null,
        "track_number": 4,
        "type": "track",
        "uri": "spotify:track:0pQskrTITgmCMyr85tb9qq"
      },
      {
        "album": {
          "album_type": "album",
          "artists": [
            {
              "external_urls": {
                "spotify": "https://open.spotify.com/artist/1dfeR4HaWDbWqFHLkxsg1d"
              },
              "href": "https://api.spotify.com/v1/artists/1dfeR4HaWDbWqFHLkxsg1d",
              "id": "1dfeR4HaWDbWqFHLkxsg1d",
              "name": "Queen",
              "type": "artist",
              "uri": "spotify:artist:1dfeR4HaWDbWqFHLkxsg1d"
            }
          ],
          "external_urls": {
            "spotify": "https://open.spotify.com/album/6reTSIf5MoBco62rk8T7Q1"
          },
          "href": "https://api.spotify.com/v1/albums/6reTSIf5MoBco62rk8T7Q1",
          "id": "6reTSIf5MoBco62rk8T7Q1",
          "images": [
            {
              "height": 640,
              "width": 640,
              "url": "https://i.scdn.co/image/ab67616d0000b273d254ca497999ae980a5a38c5"
            },
            {
              "height": 300,
              "width": 300,
              "url": "https://i.scdn.co/image/ab67616d00001e02d254ca497999ae980a5a38c5"
            },
            {
              "height": 64,
              "width": 64,
              "url": "https://i.scdn.co/image/ab67616d00004851d254ca497999ae980a5a38c5"
            }
          ],
          "is_playable": true,
          "name": "Hot Space (2011 Remaster)",
          "release_date": "1982-05-03",
          "release_date_precision": "day",
          "total_tracks": 11,
          "type": "album",
          "uri": "spotify:album:6reTSIf5MoBco62rk8T7Q1"
        },
        "artists": [
          {
            "external_urls": {
              "spotify": "https://open.spotify.com/artist/1dfeR4HaWDbWqFHLkxsg1d"
            },
            "href": "https://api.spotify.com/v1/artists/1dfeR4HaWDbWqFHLkxsg1d",
            "id": "1dfeR4HaWDbWqFHLkxsg1d",
            "name": "Queen",
            "type": "artist",
            "uri": "spotify:artist:1dfeR4HaWDbWqFHLkxsg1d"
          },
          {
            "external_urls": {
              "spotify": "https://open.spotify.com/artist/0oSGxfWSnnOXhD2fKuz2Gy"
            },
            "href": "https://api.spotify.com/v1/artists/0oSGxfWSnnOXhD2fKuz2Gy",
            "id": "0oSGxfWSnnOXhD2fKuz2Gy",
            "name": "David Bowie",
            "type": "artist",
            "uri": "spotify:artist:0oSGxfWSnnOXhD2fKuz2Gy"
          }
        ],
        "disc_number": 1,
        "duration_ms": 248440,
        "explicit": false,
        "external_ids": {
          "isrc": "GBUM71029622"
        },
        "external_urls": {
          "spotify": "https://open.spotify.com/track/2fuCquhmrzHpu5xcA1ci9x"
        },
        "href": "https://api.spotify.com/v1/tracks/2fuCquhmrzHpu5xcA1ci9x",
        "id": "2fuCquhmrzHpu5xcA1ci9x",
        "is_local": false,
        "is_playable": true,
        "name": "Under Pressure - Remastered 2011",
        "popularity": 82,
        "preview_url": null,
        "track_number": 11,
        "type": "track",
        "uri": "spotify:track:2fuCquhmrzHpu5xcA1ci9x"
      },
      {
        "album": {
          "album_type": "album",
          "artists": [
            {
              "external_urls": {
                "spotify": "https://open.spotify.com/artist/0oSGxfWSnnOXhD2fKuz2Gy"
              },
              "href": "https://api.spotify.com/v1/artists/0oSGxfWSnnOXhD2fKuz2Gy",
              "id": "0oSGxfWSnnOXhD2fKuz2Gy",
              "name": "David Bowie",
              "type": "artist",
              "uri": "spotify:artist:0oSGxfWSnnOXhD2fKuz2Gy"
            }
          ],
          "external_urls": {
            "spotify": "https://open.spotify.com/album/6fQElzBNTiEMGdIeY0hy5l"
          },
          "href": "https://api.spotify.com/v1/albums/6fQElzBNTiEMGdIeY0hy5l",
          "id": "6fQElzBNTiEMGdIeY0hy5l",
          "images": [
            {
              "height": 640,
              "width": 640,
              "url": "https://i.scdn.co/image/ab67616d0000b273e464904cc3fed2b40fc55120"
            },
            {
              "height": 300,
              "width": 300,
              "url": "https://i.scdn.co/image/ab67616d00001e02e464904cc3fed2b40fc55120"
            },
            {
              "height": 64,
              "width": 64,
              "url": "https://i.scdn.co/image/ab67616d00004851e464904cc3fed2b40fc55120"
            }
          ],
          "is_playable": true,
          "name": "Hunky Dory (2015 Remaster)",
          "release_date": "1971-12-17",
          "release_date_precision": "day",
          "total_tracks": 11,
          "type": "album",
          "uri": "spotify:album:6fQElzBNTiEMGdIeY0hy5l"
        },
        "artists": [
          {
            "external_urls": {
              "spotify": "https://open.spotify.com/artist/0oSGxfWSnnOXhD2fKuz2Gy"
            },
            "href": "https://api.spotify.com/v1/artists/0oSGxfWSnnOXhD2fKuz2Gy",
            "id": "0oSGxfWSnnOXhD2fKuz2Gy",
            "name": "David Bowie",
            "type": "artist",
            "uri": "spotify:artist:0oSGxfWSnnOXhD2fKuz2Gy"
          }
        ],
        "disc_number": 1,
        "duration_ms": 217746,
        "explicit": false,
        "external_ids": {
          "isrc": "USJT11500128"
        },
        "external_urls": {
          "spotify": "https://open.spotify.com/track/0LrwgdLsFaWh9VXIjBRe8t"
        },
        "href": "https://api.spotify.com/v1/tracks/0LrwgdLsFaWh9VXIjBRe8t",
        "id": "0LrwgdLsFaWh9VXIjBRe8t",
        "is_local": false,
        "is_playable": true,
        "name": "Changes - 2015 Remaster",
        "popularity": 69,
        "preview_url": null,
        "track_number": 1,
        "type": "track",
        "uri": "spotify:track:0LrwgdLsFaWh9VXIjBRe8t"
      },
      {
        "album": {
          "album_type": "album",
          "total_tracks": 11,
          "external_urls": {
            "spotify": "https://open.spotify.com/album/0RHX9XECH8IVI3LNgWDpmQ"
          },
          "href": "https://api.spotify.com/v1/albums/0RHX9XECH8IVI3LNgWDpmQ",
          "id": "0RHX9XECH8IVI3LNgWDpmQ",
          "images": [
            {
              "url": "https://i.scdn.co/image/ab67616d0000b273de09e02aa7febf30b7c02d82",
              "height": 640,
              "width": 640
            },
            {
              "url": "https://i.scdn.co/image/ab67616d00001e02de09e02aa7febf30b7c02d82",
              "height": 300,
              "width": 300
            },
            {
              "url": "https://i.scdn.co/image/ab67616d00004851de09e02aa7febf30b7c02d82",
              "height": 64,
              "width": 64
            }
          ],
          "name": "A Rush of Blood to the Head",
          "release_date": "2002-08-27",
          "release_date_precision": "day",
          "type": "album",
          "uri": "spotify:album:0RHX9XECH8IVI3LNgWDpmQ",
          "artists": [
            {
              "external_urls": {
                "spotify": "https://open.spotify.com/artist/4gzpq5DPGxSnKTe4SA8HAU"
              },
              "href": "https://api.spotify.com/v1/artists/4gzpq5DPGxSnKTe4SA8HAU",
              "id": "4gzpq5DPGxSnKTe4SA8HAU",
              "name": "Coldplay",
              "type": "artist",
              "uri": "spotify:artist:4gzpq5DPGxSnKTe4SA8HAU"
            }
          ],
          "is_playable": true
        },
        "artists": [
          {
            "external_urls": {
              "spotify": "https://open.spotify.com/artist/4gzpq5DPGxSnKTe4SA8HAU"
            },
            "href": "https://api.spotify.com/v1/artists/4gzpq5DPGxSnKTe4SA8HAU",
            "id": "4gzpq5DPGxSnKTe4SA8HAU",
            "name": "Coldplay",
            "type": "artist",
            "uri": "spotify:artist:4gzpq5DPGxSnKTe4SA8HAU"
          }
        ],
        "disc_number": 1,
        "duration_ms": 307879,
        "explicit": false,
        "external_ids": {
          "isrc": "GBAYE0200771"
        },
        "external_urls": {
          "spotify": "https://open.spotify.com/track/0BCPKOYdS2jbQ8iyB56Zns"
        },
        "href": "https://api.spotify.com/v1/tracks/0BCPKOYdS2jbQ8iyB56Zns",
        "id": "0BCPKOYdS2jbQ8iyB56Zns",
        "is_playable": true,
        "name": "Clocks",
        "popularity": 87,
        "preview_url": null,
        "track_number": 5,
        "type": "track",
        "uri": "spotify:track:0BCPKOYdS2jbQ8iyB56Zns",
        "is_local": false
      },
      {
        "album": {
          "album_type": "album",
          "total_tracks": 10,
          "external_urls": {
            "spotify": "https://open.spotify.com/album/7sYd6KDHefklNf94RmND8g"
          },
          "href": "https://api.spotify.com/v1/albums/7sYd6KDHefklNf94RmND8g",
          "id": "7sYd6KDHefklNf94RmND8g",
          "images": [
            {
              "url": "https://i.scdn.co/image/ab67616d0000b273be592342bbc8e3bfce593b16",
              "height": 640,
              "width": 640
            },
            {
              "url": "https://i.scdn.co/image/ab67616d00001e02be592342bbc8e3bfce593b16",
              "height": 300,
              "width": 300
            },
            {
              "url": "https://i.scdn.co/image/ab67616d00004851be592342bbc8e3bfce593b16",
              "height": 64,
              "width": 64
            }
          ],
          "name": "Viva La Vida or Death and All His Friends",
          "release_date": "2008-06-12",
          "release_date_precision": "day",
          "type": "album",
          "uri": "spotify:album:7sYd6KDHefklNf94RmND8g",
          "artists": [
            {
              "external_urls": {
                "spotify": "https://open.spotify.com/artist/4gzpq5DPGxSnKTe4SA8HAU"
              },
              "href": "https://api.spotify.com/v1/artists/4gzpq5DPGxSnKTe4SA8HAU",
              "id": "4gzpq5DPGxSnKTe4SA8HAU",
              "name": "Coldplay",
              "type": "artist",
              "uri": "spotify:artist:4gzpq5DPGxSnKTe4SA8HAU"
            }
          ],
          "is_playable": true
        },
        "artists": [
          {
            "external_urls": {
              "spotify": "https://open.spotify.com/artist/4gzpq5DPGxSnKTe4SA8HAU"
            },
            "href": "https://api.spotify.com/v1/artists/4gzpq5DPGxSnKTe4SA8HAU",
            "id": "4gzpq5DPGxSnKTe4SA8HAU",
            "name": "Coldplay",
            "type": "artist",
            "uri": "spotify:artist:4gzpq5DPGxSnKTe4SA8HAU"
          }
        ],
        "disc_number": 1,
        "duration_ms": 242373,
        "explicit": false,
        "external_ids": {
          "isrc": "GBAYE0800265"
        },
        "external_urls": {
          "spotify": "https://open.spotify.com/track/4zOfy9kqJlG0ZXvcaSh4gv"
        },
        "href": "https://api.spotify.com/v1/tracks/4zOfy9kqJlG0ZXvcaSh4gv",
        "id": "4zOfy9kqJlG0ZXvcaSh4gv",
        "is_playable": true,
        "name": "Viva La Vida",
        "popularity": 73,
        "preview_url": null,
        "track_number": 7,
        "type": "track",
        "uri": "spotify:track:4zOfy9kqJlG0ZXvcaSh4gv",
        "is_local": false
      },
      {
        "album": {
          "album_type": "single",
          "total_tracks": 1,
          "external_urls": {
            "spotify": "https://open.spotify.com/album/6RjTapeTvms8jSeIRGc5Ve"
          },
          "href": "https://api.spotify.com/v1/albums/6RjTapeTvms8jSeIRGc5Ve",
          "id": "6RjTapeTvms8jSeIRGc5Ve",
          "images": [
            {
              "url": "https://i.scdn.co/image/ab67616d0000b27390ac383add08fbff7286958c",
              "height": 640,
              "width": 640
            },
            {
              "url": "https://i.scdn.co/image/ab67616d00001e0290ac383add08fbff7286958c",
              "height": 300,
              "width": 300
            },
            {
              "url": "https://i.scdn.co/image/ab67616d0000485190ac383add08fbff7286958c",
              "height": 64,
              "width": 64
            }
          ],
          "name": "feelslikeimfallinginlove",
          "release_date": "2024-06-21",
          "release_date_precision": "day",
          "type": "album",
          "uri": "spotify:album:6RjTapeTvms8jSeIRGc5Ve",
          "artists": [
            {
              "external_urls": {
                "spotify": "https://open.spotify.com/artist/4gzpq5DPGxSnKTe4SA8HAU"
              },
              "href": "https://api.spotify.com/v1/artists/4gzpq5DPGxSnKTe4SA8HAU",
              "id": "4gzpq5DPGxSnKTe4SA8HAU",
              "name": "Coldplay",
              "type": "artist",
              "uri": "spotify:artist:4gzpq5DPGxSnKTe4SA8HAU"
            }
          ],
          "is_playable": true
        },
        "artists": [
          {
            "external_urls": {
              "spotify": "https://open.spotify.com/artist/4gzpq5DPGxSnKTe4SA8HAU"
            },
            "href": "https://api.spotify.com/v1/artists/4gzpq5DPGxSnKTe4SA8HAU",
            "id": "4gzpq5DPGxSnKTe4SA8HAU",
            "name": "Coldplay",
            "type": "artist",
            "uri": "spotify:artist:4gzpq5DPGxSnKTe4SA8HAU"
          }
        ],
        "disc_number": 1,
        "duration_ms": 237803,
        "explicit": false,
        "external_ids": {
          "isrc": "GBAYE2400676"
        },
        "external_urls": {
          "spotify": "https://open.spotify.com/track/1YsU8rW2u8z4F0pwOBQ4Ea"
        },
        "href": "https://api.spotify.com/v1/tracks/1YsU8rW2u8z4F0pwOBQ4Ea",
        "id": "1YsU8rW2u8z4F0pwOBQ4Ea",
        "is_playable": true,
        "name": "feelslikeimfallinginlove - Single Version",
        "popularity": 75,
        "preview_url": null,
        "track_number": 1,
        "type": "track",
        "uri": "spotify:track:1YsU8rW2u8z4F0pwOBQ4Ea",
        "is_local": false
      }
    ]
  }
}